[
  {
    "id": "1",
    "name": "Iban",
    "indexId": "61",
    "borders": "{2112,4544,2175,4607}"
  },
  {
    "id": "2",
    "name": "Autumn Voyage",
    "indexId": "17",
    "borders": "{3200,3264,3263,3327}"
  },
  {
    "id": "3",
    "name": "Unknown Land",
    "indexId": "133",
    "borders": "{3072,3200,3135,3263}"
  },
  {
    "id": "4",
    "name": "Hell's Bells",
    "indexId": "254",
    "borders": "{2752,3712,2815,3775}"
  },
  {
    "id": "5",
    "name": "Sad Meadow",
    "indexId": "101",
    "borders": "{2496,3264,2559,3327}-{2752,4672,2815,4735}"
  },
  {
    "id": "6",
    "name": "Jolly-R",
    "indexId": "65",
    "borders": "{2752,3200,2815,3263}"
  },
  {
    "id": "7",
    "name": "Overture",
    "indexId": "92",
    "borders": "{2688,3456,2751,3519}"
  },
  {
    "id": "8",
    "name": "Wildwood",
    "indexId": "256",
    "borders": "{3072,3584,3135,3647}"
  },
  {
    "id": "9",
    "name": "Kingdom",
    "indexId": "190",
    "borders": "{2816,3520,2879,3583}"
  },
  {
    "id": "10",
    "name": "Moody",
    "indexId": "87",
    "borders": "{3136,3584,3199,3647}-{2368,3264,2431,3327}"
  },
  {
    "id": "11",
    "name": "Spooky2",
    "indexId": "218",
    "borders": "{3392,9600,3455,9663}"
  },
  {
    "id": "12",
    "name": "Long Way Home",
    "indexId": "76",
    "borders": "{2944,3200,3007,3263}"
  },
  {
    "id": "13",
    "name": "Mage Arena",
    "indexId": "78",
    "borders": "{3072,3904,3135,3967}-{2496,4672,2559,4735}"
  },
  {
    "id": "14",
    "name": "Witching",
    "indexId": "145",
    "borders": "{3264,3648,3327,3711}"
  },
  {
    "id": "15",
    "name": "Workshop",
    "indexId": "148",
    "borders": "{3008,3328,3071,3391}"
  },
  {
    "id": "17",
    "name": "Escape",
    "indexId": "176",
    "borders": "{2688,9664,2751,9727}"
  },
  {
    "id": "18",
    "name": "Horizon",
    "indexId": "60",
    "borders": "{2880,3392,2943,3455}"
  },
  {
    "id": "19",
    "name": "Arabique",
    "indexId": "7",
    "borders": "{2816,9792,2879,9855}"
  },
  {
    "id": "20",
    "name": "Lullaby",
    "indexId": "77",
    "borders": "{3328,3392,3391,3455}-{2624,3520,2687,3583}"
  },
  {
    "id": "21",
    "name": "Monarch Waltz",
    "indexId": "86",
    "borders": "{2688,3520,2751,3583}"
  },
  {
    "id": "22",
    "name": "Gnome King",
    "indexId": "51",
    "borders": "{2432,3456,2495,3519}"
  },
  {
    "id": "24",
    "name": "Attack1",
    "indexId": "10",
    "borders": "{2496,3200,2559,3263}"
  },
  {
    "id": "25",
    "name": "Attack2",
    "indexId": "11",
    "borders": "{2816,9600,2879,9663}"
  },
  {
    "id": "26",
    "name": "Attack3",
    "indexId": "12",
    "borders": "{3008,10240,3071,10303}"
  },
  {
    "id": "27",
    "name": "Attack4",
    "indexId": "13",
    "borders": "{2560,3136,2623,3199}-{2560,9536,2623,9599}"
  },
  {
    "id": "28",
    "name": "Attack5",
    "indexId": "14",
    "borders": "{2240,4672,2303,4735}"
  },
  {
    "id": "29",
    "name": "Attack6",
    "indexId": "15",
    "borders": "{2560,9408,2623,9471}"
  },
  {
    "id": "30",
    "name": "Voodoo Cult",
    "indexId": "138",
    "borders": "{2368,4672,2431,4735}-{2880,9280,2943,9343}"
  },
  {
    "id": "32",
    "name": "Voyage",
    "indexId": "139",
    "borders": "{2496,3456,2559,3519}"
  },
  {
    "id": "33",
    "name": "Gnome Village",
    "indexId": "53",
    "borders": "{2432,3392,2495,3455}"
  },
  {
    "id": "34",
    "name": "Wonder",
    "indexId": "146",
    "borders": "{2944,3520,3007,3583}"
  },
  {
    "id": "35",
    "name": "Sea Shanty2",
    "indexId": "107",
    "borders": "{3008,3200,3071,3263}"
  },
  {
    "id": "36",
    "name": "Arabian",
    "indexId": "4",
    "borders": "{3264,3200,3327,3263}-{3392,3136,3455,3199}"
  },
  {
    "id": "37",
    "name": "Deep Wildy",
    "indexId": "32",
    "borders": "{2944,3776,3007,3839}"
  },
  {
    "id": "38",
    "name": "Trawler",
    "indexId": "124",
    "borders": "{1856,4800,1919,4863}"
  },
  {
    "id": "41",
    "name": "Expecting",
    "indexId": "41",
    "borders": "{2432,3200,2495,3263}-{2432,9600,2495,9663}"
  },
  {
    "id": "42",
    "name": "Wilderness2",
    "indexId": "143",
    "borders": "{3008,3776,3071,3839}"
  },
  {
    "id": "43",
    "name": "Wilderness3",
    "indexId": "144",
    "borders": "{2944,3712,3007,3775}"
  },
  {
    "id": "45",
    "name": "Venture2",
    "indexId": "168",
    "borders": "{3328,9728,3391,9791}"
  },
  {
    "id": "46",
    "name": "Harmony2",
    "indexId": "167",
    "borders": "{3200,9600,3263,9663}"
  },
  {
    "id": "47",
    "name": "Duel Arena",
    "indexId": "164",
    "borders": "{3328,3200,3391,3263}"
  },
  {
    "id": "48",
    "name": "Morytania",
    "indexId": "180",
    "borders": "{3392,3456,3455,3519}"
  },
  {
    "id": "49",
    "name": "Wander",
    "indexId": "140",
    "borders": "{3008,3264,3071,3327}"
  },
  {
    "id": "50",
    "name": "Al Kharid",
    "indexId": "1",
    "borders": "{3264,3136,3327,3199}-{3328,3136,3391,3199}"
  },
  {
    "id": "51",
    "name": "Trawler Minor",
    "indexId": "125",
    "borders": "{1920,4800,1983,4863}"
  },
  {
    "id": "52",
    "name": "Serene",
    "indexId": "109",
    "borders": "{2944,3904,3007,3967}-{2944,10240,3007,10303}-{2816,4800,2879,4863}"
  },
  {
    "id": "53",
    "name": "Royale",
    "indexId": "99",
    "borders": "{2880,9664,2943,9727}"
  },
  {
    "id": "54",
    "name": "Scape Soft",
    "indexId": "159",
    "borders": "{2944,3392,3007,3455}"
  },
  {
    "id": "55",
    "name": "High Seas",
    "indexId": "59",
    "borders": "{2752,3136,2815,3199}"
  },
  {
    "id": "56",
    "name": "Doorways",
    "indexId": "34",
    "borders": "{3136,3520,3199,3583}"
  },
  {
    "id": "57",
    "name": "Rune Essence",
    "indexId": "100",
    "borders": "{2880,4800,2943,4863}"
  },
  {
    "id": "58",
    "name": "Nomad",
    "indexId": "171",
    "borders": "{2752,3072,2815,3135}"
  },
  {
    "id": "59",
    "name": "Cursed",
    "indexId": "186",
    "borders": "{2368,9664,2431,9727}"
  },
  {
    "id": "60",
    "name": "Lasting",
    "indexId": "71",
    "borders": "{2624,3392,2687,3455}"
  },
  {
    "id": "61",
    "name": "Village",
    "indexId": "182",
    "borders": "{3456,3456,3519,3519}"
  },
  {
    "id": "62",
    "name": "Newbie Melody",
    "indexId": "89",
    "borders": "{3052,3055,3155,3135}"
  },
  {
    "id": "63",
    "name": "Chain of Command",
    "indexId": "27",
    "borders": "{2624,9728,2687,9791}-{2688,9792,2751,9855}"
  },
  {
    "id": "64",
    "name": "Book of Spells",
    "indexId": "23",
    "borders": "{3136,3136,3199,3199}"
  },
  {
    "id": "65",
    "name": "Miracle Dance",
    "indexId": "85",
    "borders": "{2752,4800,2815,4863}"
  },
  {
    "id": "66",
    "name": "Legion",
    "indexId": "72",
    "borders": "{3008,3648,3071,3711}-{2496,3520,2559,3583}"
  },
  {
    "id": "67",
    "name": "Close Quarters",
    "indexId": "175",
    "borders": "{3136,3712,3199,3775}-{1536,5760,1599,5823}"
  },
  {
    "id": "68",
    "name": "Cavern",
    "indexId": "26",
    "borders": "{3008,10304,3071,10367}-{2560,9472,2623,9535}"
  },
  {
    "id": "69",
    "name": "Egypt",
    "indexId": "37",
    "borders": "{3264,3072,3327,3135}"
  },
  {
    "id": "70",
    "name": "Upcoming",
    "indexId": "135",
    "borders": "{2624,3200,2687,3263}"
  },
  {
    "id": "71",
    "name": "Chompy Hunt",
    "indexId": "178",
    "borders": "{2624,2944,2687,3007}-{2624,9344,2687,9407}"
  },
  {
    "id": "72",
    "name": "Fanfare",
    "indexId": "44",
    "borders": "{2944,3328,3007,3391}"
  },
  {
    "id": "73",
    "name": "All's Fairy in Love and War",
    "indexId": "436",
    "borders": ""
  },
  {
    "id": "74",
    "name": "Lightwalk",
    "indexId": "74",
    "borders": "{2752,3392,2815,3455}"
  },
  {
    "id": "75",
    "name": "Venture",
    "indexId": "136",
    "borders": "{3328,3328,3391,3391}"
  },
  {
    "id": "76",
    "name": "Harmony",
    "indexId": "58",
    "borders": "{3200,3200,3263,3263}"
  },
  {
    "id": "77",
    "name": "Splendour",
    "indexId": "113",
    "borders": "{2880,3456,2943,3519}"
  },
  {
    "id": "78",
    "name": "Reggae",
    "indexId": "96",
    "borders": "{2880,2880,2943,2943}"
  },
  {
    "id": "79",
    "name": "The Desert",
    "indexId": "120",
    "borders": "{3136,3008,3199,3071}"
  },
  {
    "id": "80",
    "name": "Soundscape",
    "indexId": "111",
    "borders": "{2432,2944,2495,3007}"
  },
  {
    "id": "81",
    "name": "Wonderous",
    "indexId": "147",
    "borders": "{2624,3328,2687,3391}"
  },
  {
    "id": "82",
    "name": "Waterfall",
    "indexId": "141",
    "borders": "{2496,3392,2559,3455}-{2496,9792,2559,9855}"
  },
  {
    "id": "83",
    "name": "Big Chords",
    "indexId": "22",
    "borders": "{2496,3072,2559,3135}"
  },
  {
    "id": "84",
    "name": "Dead Quiet",
    "indexId": "181",
    "borders": "{3392,3392,3455,3455}-{2304,4992,2367,5055}"
  },
  {
    "id": "85",
    "name": "Vision",
    "indexId": "137",
    "borders": "{3072,3136,3135,3199}-{3072,9472,3135,9535}"
  },
  {
    "id": "87",
    "name": "Ice Melody",
    "indexId": "165",
    "borders": "{2816,3456,2879,3519}"
  },
  {
    "id": "88",
    "name": "Twilight",
    "indexId": "179",
    "borders": "{2688,9856,2751,9919}"
  },
  {
    "id": "89",
    "name": "Reggae2",
    "indexId": "97",
    "borders": "{2880,3008,2943,3071}"
  },
  {
    "id": "90",
    "name": "Ambient Jungle",
    "indexId": "3",
    "borders": "{2816,2944,2879,3007}"
  },
  {
    "id": "91",
    "name": "Riverside",
    "indexId": "98",
    "borders": "{2688,3264,2751,3327}-{2112,3072,2175,3135}"
  },
  {
    "id": "92",
    "name": "Sea Shanty",
    "indexId": "106",
    "borders": "{2880,3136,2943,3199}"
  },
  {
    "id": "93",
    "name": "Parade",
    "indexId": "93",
    "borders": "{3264,3456,3327,3519}"
  },
  {
    "id": "94",
    "name": "Tribal2",
    "indexId": "129",
    "borders": "{2880,2944,2943,3007}"
  },
  {
    "id": "95",
    "name": "Intrepid",
    "indexId": "64",
    "borders": "{2304,9792,2367,9855}"
  },
  {
    "id": "96",
    "name": "Inspiration",
    "indexId": "63",
    "borders": "{3008,3520,3071,3583}"
  },
  {
    "id": "97",
    "name": "Hermit",
    "indexId": "191",
    "borders": "{2240,4736,2303,4799}"
  },
  {
    "id": "98",
    "name": "Forever",
    "indexId": "48",
    "borders": "{3072,3456,3135,3519}-{3072,9856,3135,9919}"
  },
  {
    "id": "99",
    "name": "Baroque",
    "indexId": "20",
    "borders": "{2624,3264,2687,3327}"
  },
  {
    "id": "100",
    "name": "Beyond",
    "indexId": "21",
    "borders": "{2816,9856,2879,9919}-{2816,9920,2879,9983}"
  },
  {
    "id": "101",
    "name": "Gnome Village2",
    "indexId": "54",
    "borders": "{2304,3392,2367,3455}"
  },
  {
    "id": "102",
    "name": "Alone",
    "indexId": "2",
    "borders": "{3008,3456,3071,3519}-{2496,9600,2559,9663}"
  },
  {
    "id": "103",
    "name": "Oriental",
    "indexId": "91",
    "borders": "{2880,9344,2943,9407}"
  },
  {
    "id": "104",
    "name": "Camelot",
    "indexId": "24",
    "borders": "{2752,3456,2815,3519}"
  },
  {
    "id": "105",
    "name": "Tomorrow",
    "indexId": "163",
    "borders": "{3008,3136,3071,3199}"
  },
  {
    "id": "106",
    "name": "Expanse",
    "indexId": "40",
    "borders": "{3136,3904,3199,3967}-{3200,3328,3263,3391}-{3200,9728,3263,9791}"
  },
  {
    "id": "107",
    "name": "Miles Away",
    "indexId": "84",
    "borders": "{2880,3264,2943,3327}-{2624,4672,2687,4735}"
  },
  {
    "id": "108",
    "name": "Starlight",
    "indexId": "116",
    "borders": "{2944,9536,3007,9599}-{3200,9536,3263,9599}"
  },
  {
    "id": "109",
    "name": "Theme",
    "indexId": "123",
    "borders": "{2560,3456,2623,3519}-{2496,9856,2559,9919}"
  },
  {
    "id": "110",
    "name": "Serenade",
    "indexId": "108",
    "borders": "{2368,3136,2431,3199}"
  },
  {
    "id": "111",
    "name": "Still Night",
    "indexId": "118",
    "borders": "{3264,3328,3327,3391}"
  },
  {
    "id": "112",
    "name": "Gnomeball",
    "indexId": "56",
    "borders": "{2304,3456,2367,3519}"
  },
  {
    "id": "113",
    "name": "Lightness",
    "indexId": "73",
    "borders": "{3072,3520,3135,3583}"
  },
  {
    "id": "114",
    "name": "Jungly1",
    "indexId": "67",
    "borders": "{2752,2944,2815,3007}-{2752,9344,2815,9407}"
  },
  {
    "id": "115",
    "name": "Jungly2",
    "indexId": "68",
    "borders": "{2688,3200,2751,3263}"
  },
  {
    "id": "116",
    "name": "Greatness",
    "indexId": "57",
    "borders": "{3136,3328,3199,3391}"
  },
  {
    "id": "117",
    "name": "Jungly3",
    "indexId": "69",
    "borders": "{2752,3008,2815,3071}"
  },
  {
    "id": "118",
    "name": "Faerie",
    "indexId": "43",
    "borders": "{2368,4352,2431,4415}"
  },
  {
    "id": "119",
    "name": "Fishing",
    "indexId": "46",
    "borders": "{2816,3392,2879,3455}"
  },
  {
    "id": "120",
    "name": "Shining",
    "indexId": "160",
    "borders": "{3200,3712,3263,3775}"
  },
  {
    "id": "121",
    "name": "Forbidden",
    "indexId": "185",
    "borders": "{3264,3520,3327,3583}"
  },
  {
    "id": "122",
    "name": "Shine",
    "indexId": "110",
    "borders": "{3328,3264,3391,3327}"
  },
  {
    "id": "123",
    "name": "Arabian2",
    "indexId": "5",
    "borders": "{3264,3264,3327,3327}"
  },
  {
    "id": "124",
    "name": "Arabian3",
    "indexId": "6",
    "borders": "{3200,3072,3263,3135}"
  },
  {
    "id": "125",
    "name": "Garden",
    "indexId": "50",
    "borders": "{3200,3392,3263,3455}"
  },
  {
    "id": "127",
    "name": "Nightfall",
    "indexId": "90",
    "borders": "{3200,3904,3263,3967}-{2944,3264,3007,3327}"
  },
  {
    "id": "128",
    "name": "Grumpy",
    "indexId": "177",
    "borders": "{2560,2944,2623,3007}"
  },
  {
    "id": "129",
    "name": "Spooky Jungle",
    "indexId": "115",
    "borders": "{2752,2880,2815,2943}-{2880,9472,2943,9535}"
  },
  {
    "id": "130",
    "name": "Tree Spirits",
    "indexId": "126",
    "borders": "{2304,3328,2367,3391}"
  },
  {
    "id": "131",
    "name": "Understanding",
    "indexId": "187",
    "borders": "{2368,4800,2431,4863}"
  },
  {
    "id": "132",
    "name": "Breeze",
    "indexId": "194",
    "borders": "{2240,3200,2303,3263}"
  },
  {
    "id": "133",
    "name": "The Tower",
    "indexId": "122",
    "borders": "{2560,3328,2623,3391}-{2496,9728,2559,9791}"
  },
  {
    "id": "134",
    "name": "La Mort",
    "indexId": "192",
    "borders": "{2176,4800,2239,4863}"
  },
  {
    "id": "138",
    "name": "Emperor",
    "indexId": "39",
    "borders": "{2880,3200,2943,3263}-{2880,9600,2943,9663}"
  },
  {
    "id": "140",
    "name": "Talking Forest",
    "indexId": "119",
    "borders": "{2624,3456,2687,3519}"
  },
  {
    "id": "141",
    "name": "Barbarianism",
    "indexId": "257",
    "borders": "{3072,3392,3135,3455}-{3072,9792,3135,9855}"
  },
  {
    "id": "142",
    "name": "Complication",
    "indexId": "258",
    "borders": "{2240,4800,2303,4863}"
  },
  {
    "id": "143",
    "name": "Down to Earth",
    "indexId": "259",
    "borders": "{2624,4800,2687,4863}"
  },
  {
    "id": "144",
    "name": "Scape Cave",
    "indexId": "102",
    "borders": "{3136,9856,3199,9919}-{3072,9536,3135,9599}"
  },
  {
    "id": "145",
    "name": "Yesteryear",
    "indexId": "161",
    "borders": "{3200,3136,3263,3199}"
  },
  {
    "id": "146",
    "name": "Zealot",
    "indexId": "172",
    "borders": "{2688,4800,2751,4863}"
  },
  {
    "id": "148",
    "name": "Emotion",
    "indexId": "38",
    "borders": "{2496,3136,2559,3199}-{2560,4416,2623,4479}-{2496,9536,2559,9599}"
  },
  {
    "id": "149",
    "name": "Principality",
    "indexId": "188",
    "borders": "{2880,3520,2943,3583}"
  },
  {
    "id": "151",
    "name": "Start",
    "indexId": "117",
    "borders": "{3072,3264,3135,3327}"
  },
  {
    "id": "152",
    "name": "Ballad of Enchantment",
    "indexId": "19",
    "borders": "{2560,3200,2623,3263}"
  },
  {
    "id": "153",
    "name": "Expedition",
    "indexId": "42",
    "borders": "{2880,9984,2943,10047}"
  },
  {
    "id": "154",
    "name": "Bone Dance",
    "indexId": "183",
    "borders": "{3392,3264,3455,3327}"
  },
  {
    "id": "155",
    "name": "Neverland",
    "indexId": "88",
    "borders": "{2432,3328,2495,3391}"
  },
  {
    "id": "156",
    "name": "Mausoleum",
    "indexId": "184",
    "borders": "{3392,9856,3455,9919}"
  },
  {
    "id": "157",
    "name": "Medieval",
    "indexId": "82",
    "borders": "{3264,3392,3327,3455}"
  },
  {
    "id": "158",
    "name": "Quest",
    "indexId": "94",
    "borders": "{2560,4800,2623,4863}"
  },
  {
    "id": "159",
    "name": "Gaol",
    "indexId": "49",
    "borders": "{3008,3712,3071,3775}-{2496,3008,2559,3071}-{2496,9408,2559,9471}"
  },
  {
    "id": "160",
    "name": "Army of Darkness",
    "indexId": "8",
    "borders": "{3008,3584,3071,3647}"
  },
  {
    "id": "161",
    "name": "Long Ago",
    "indexId": "75",
    "borders": "{2624,3072,2687,3135}"
  },
  {
    "id": "162",
    "name": "Tribal Background",
    "indexId": "127",
    "borders": "{2816,3072,2879,3135}-{2816,9472,2879,9535}"
  },
  {
    "id": "163",
    "name": "Flute Salad",
    "indexId": "47",
    "borders": "{3136,3264,3199,3327}"
  },
  {
    "id": "164",
    "name": "Landlubber",
    "indexId": "169",
    "borders": "{2688,3136,2751,3199}"
  },
  {
    "id": "165",
    "name": "Tribal",
    "indexId": "128",
    "borders": "{2816,3008,2879,3071}"
  },
  {
    "id": "166",
    "name": "Fanfare2",
    "indexId": "162",
    "borders": "{2944,3008,3007,3071}"
  },
  {
    "id": "167",
    "name": "Fanfare3",
    "indexId": "45",
    "borders": "{2624,3136,2687,3199}"
  },
  {
    "id": "168",
    "name": "Lonesome",
    "indexId": "149",
    "borders": "{3264,9408,3327,9471}"
  },
  {
    "id": "169",
    "name": "Crystal Sword",
    "indexId": "29",
    "borders": "{3200,3520,3263,3583}-{2624,9664,2687,9727}"
  },
  {
    "id": "170",
    "name": "The Shadow",
    "indexId": "121",
    "borders": "{2816,3200,2879,3263}"
  },
  {
    "id": "172",
    "name": "Jungle Island",
    "indexId": "66",
    "borders": "{2816,3136,2879,3199}-{2816,2880,2879,2943}"
  },
  {
    "id": "173",
    "name": "Dunjun",
    "indexId": "36",
    "borders": "{2880,9728,2943,9791}"
  },
  {
    "id": "174",
    "name": "Desert Voyage",
    "indexId": "33",
    "borders": "{3264,2944,3327,3007}-{3328,3008,3391,3071}"
  },
  {
    "id": "175",
    "name": "Spirit",
    "indexId": "112",
    "borders": "{3136,3392,3199,3455}"
  },
  {
    "id": "176",
    "name": "Undercurrent",
    "indexId": "170",
    "borders": "{3072,3648,3135,3711}"
  },
  {
    "id": "177",
    "name": "Adventure",
    "indexId": "0",
    "borders": "{3200,3456,3263,3519}"
  },
  {
    "id": "178",
    "name": "Courage",
    "indexId": "260",
    "borders": "{2880,9792,2943,9855}"
  },
  {
    "id": "179",
    "name": "Underground",
    "indexId": "132",
    "borders": "{3328,3584,3391,3647}-{2816,9728,2879,9791}"
  },
  {
    "id": "180",
    "name": "Attention",
    "indexId": "16",
    "borders": "{2944,3136,3007,3199}"
  },
  {
    "id": "181",
    "name": "Crystal Cave",
    "indexId": "28",
    "borders": "{2432,4416,2495,4479}"
  },
  {
    "id": "182",
    "name": "Dangerous",
    "indexId": "30",
    "borders": "{3264,3776,3327,3839}-{3264,3712,3327,3775}"
  },
  {
    "id": "183",
    "name": "Troubled",
    "indexId": "131",
    "borders": "{2944,3648,3007,3711}"
  },
  {
    "id": "184",
    "name": "Magical Journey",
    "indexId": "80",
    "borders": "{2688,3392,2751,3455}"
  },
  {
    "id": "185",
    "name": "Magic Dance",
    "indexId": "79",
    "borders": "{2560,3072,2623,3135}"
  },
  {
    "id": "186",
    "name": "Arrival",
    "indexId": "9",
    "borders": "{2880,3328,2943,3391}"
  },
  {
    "id": "187",
    "name": "Tremble",
    "indexId": "189",
    "borders": "{2816,3584,2879,3647}"
  },
  {
    "id": "188",
    "name": "In the Manor",
    "indexId": "62",
    "borders": "{2560,3008,2623,3071}"
  },
  {
    "id": "190",
    "name": "Heart and Mind",
    "indexId": "174",
    "borders": "{2496,4800,2559,4863}"
  },
  {
    "id": "191",
    "name": "Knightly",
    "indexId": "70",
    "borders": "{2560,3264,2623,3327}"
  },
  {
    "id": "192",
    "name": "Trinity",
    "indexId": "130",
    "borders": "{2688,3328,2751,3391}-{2688,9728,2751,9791}"
  },
  {
    "id": "193",
    "name": "Mellow",
    "indexId": "83",
    "borders": "{2560,3392,2623,3455}"
  },
  {
    "id": "198",
    "name": "Dagannoth Dawn",
    "indexId": "365",
    "borders": "{1792,4352,1855,4415}-{1920,4352,1983,4415}"
  },
  {
    "id": "220",
    "name": "Island of the Trolls",
    "indexId": "441",
    "borders": "{2304,3842,2428,3901}"
  },
  {
    "id": "241",
    "name": "Stagnant",
    "indexId": "193",
    "borders": "{3456,3328,3519,3391}-{2176,4992,2239,5055}"
  },
  {
    "id": "242",
    "name": "Time Out",
    "indexId": "196",
    "borders": "{2880,4544,2943,4607}"
  },
  {
    "id": "243",
    "name": "Stratosphere",
    "indexId": "195",
    "borders": "{2112,4800,2175,4863}"
  },
  {
    "id": "244",
    "name": "Waterlogged",
    "indexId": "199",
    "borders": "{3456,3392,3519,3455}-{1984,4992,2047,5055}"
  },
  {
    "id": "245",
    "name": "Natural",
    "indexId": "197",
    "borders": "{3392,3328,3455,3391}-{2240,4992,2303,5055}"
  },
  {
    "id": "246",
    "name": "Grotto",
    "indexId": "198",
    "borders": "{3392,9728,3455,9791}"
  },
  {
    "id": "247",
    "name": "Artistry",
    "indexId": "200",
    "borders": "{1984,4736,2047,4799}"
  },
  {
    "id": "248",
    "name": "Aztec",
    "indexId": "201",
    "borders": "{2752,9536,2815,9599}"
  },
  {
    "id": "251",
    "name": "Forest",
    "indexId": "203",
    "borders": "{2240,3136,2303,3199}"
  },
  {
    "id": "252",
    "name": "Elven Mist",
    "indexId": "202",
    "borders": "{2304,3200,2367,3263}"
  },
  {
    "id": "253",
    "name": "Lost Soul",
    "indexId": "204",
    "borders": "{2240,3072,2303,3135}"
  },
  {
    "id": "254",
    "name": "Meridian",
    "indexId": "205",
    "borders": "{2112,3136,2175,3199}"
  },
  {
    "id": "255",
    "name": "Woodland",
    "indexId": "206",
    "borders": "{2112,3200,2175,3263}"
  },
  {
    "id": "256",
    "name": "Overpass",
    "indexId": "207",
    "borders": "{2304,3264,2367,3327}"
  },
  {
    "id": "257",
    "name": "Sojourn",
    "indexId": "209",
    "borders": "{2816,3648,2879,3711}"
  },
  {
    "id": "258",
    "name": "Contest",
    "indexId": "208",
    "borders": "{2880,3584,2943,3647}"
  },
  {
    "id": "259",
    "name": "Crystal Castle",
    "indexId": "210",
    "borders": "{2240,3264,2303,3327}"
  },
  {
    "id": "260",
    "name": "Insect Queen",
    "indexId": "212",
    "borders": "{3456,9472,3519,9535}"
  },
  {
    "id": "261",
    "name": "Marzipan",
    "indexId": "211",
    "borders": "{2752,10112,2815,10175}-{2816,10048,2879,10111}"
  },
  {
    "id": "262",
    "name": "Righteousness",
    "indexId": "223",
    "borders": "{2432,4800,2495,4863}"
  },
  {
    "id": "263",
    "name": "Bandit Camp",
    "indexId": "214",
    "borders": "{3136,2944,3199,3007}"
  },
  {
    "id": "264",
    "name": "Mad Eadgar",
    "indexId": "213",
    "borders": "{2880,10048,2943,10111}"
  },
  {
    "id": "265",
    "name": "Superstition",
    "indexId": "261",
    "borders": "{2752,9280,2815,9343}"
  },
  {
    "id": "266",
    "name": "Bone Dry",
    "indexId": "216",
    "borders": "{3200,9344,3263,9407}"
  },
  {
    "id": "267",
    "name": "Sunburn",
    "indexId": "215",
    "borders": "{3200,2944,3263,3007}-{3328,2880,3391,2943}"
  },
  {
    "id": "268",
    "name": "Everywhere",
    "indexId": "219",
    "borders": "{2112,3264,2175,3327}"
  },
  {
    "id": "269",
    "name": "Competition",
    "indexId": "217",
    "borders": "{2176,4928,2239,4991}"
  },
  {
    "id": "270",
    "name": "Exposed",
    "indexId": "220",
    "borders": "{2176,3072,2239,3135}"
  },
  {
    "id": "271",
    "name": "Well of Voyage",
    "indexId": "469",
    "borders": "{2304,9600,2367,9663}"
  },
  {
    "id": "272",
    "name": "Alternative Root",
    "indexId": "221",
    "borders": ""
  },
  {
    "id": "273",
    "name": "Easter Jig",
    "indexId": "475",
    "borders": ""
  },
  {
    "id": "277",
    "name": "Haunted Mine",
    "indexId": "222",
    "borders": "{2752,4416,2815,4479}"
  },
  {
    "id": "278",
    "name": "Deep Down",
    "indexId": "224",
    "borders": "{2688,4544,2751,4607}-{2688,4480,2751,4543}"
  },
  {
    "id": "282",
    "name": "Chamber",
    "indexId": "225",
    "borders": "{2688,4416,2751,4479}-{2752,4480,2815,4543}"
  },
  {
    "id": "284",
    "name": "Miscellania",
    "indexId": "226",
    "borders": "{2496,3840,2559,3903}"
  },
  {
    "id": "285",
    "name": "Etcetera",
    "indexId": "227",
    "borders": "{2560,3840,2623,3903}"
  },
  {
    "id": "286",
    "name": "Shadowland",
    "indexId": "228",
    "borders": "{3392,3200,3455,3263}-{3456,3264,3519,3327}-{2112,4992,2175,5055}"
  },
  {
    "id": "287",
    "name": "Lair",
    "indexId": "229",
    "borders": "{3456,9664,3519,9727}"
  },
  {
    "id": "288",
    "name": "Deadlands",
    "indexId": "230",
    "borders": "{3520,3456,3583,3519}"
  },
  {
    "id": "289",
    "name": "Rellekka",
    "indexId": "231",
    "borders": "{2560,3648,2623,3711}"
  },
  {
    "id": "290",
    "name": "Saga",
    "indexId": "232",
    "borders": "{2560,3584,2623,3647}"
  },
  {
    "id": "291",
    "name": "Borderland",
    "indexId": "233",
    "borders": "{2688,3648,2751,3711}"
  },
  {
    "id": "292",
    "name": "Stranded",
    "indexId": "234",
    "borders": "{2816,3712,2879,3775}-{2880,3712,2943,3775}"
  },
  {
    "id": "293",
    "name": "Legend",
    "indexId": "235",
    "borders": "{2688,3584,2751,3647}"
  },
  {
    "id": "294",
    "name": "Frostbite",
    "indexId": "236",
    "borders": "{2816,3776,2879,3839}"
  },
  {
    "id": "295",
    "name": "Warrior",
    "indexId": "237",
    "borders": "{2624,10048,2687,10111}"
  },
  {
    "id": "296",
    "name": "Technology",
    "indexId": "238",
    "borders": "{2560,4480,2623,4543}"
  },
  {
    "id": "303",
    "name": "Monkey Madness",
    "indexId": "239",
    "borders": "{2752,2752,2815,2815}"
  },
  {
    "id": "304",
    "name": "Marooned",
    "indexId": "241",
    "borders": "{2880,2688,2943,2751}-{3008,5440,3071,5503}"
  },
  {
    "id": "305",
    "name": "Anywhere",
    "indexId": "240",
    "borders": "{2688,2752,2751,2815}"
  },
  {
    "id": "306",
    "name": "Island Life",
    "indexId": "242",
    "borders": "{2688,2688,2751,2751}"
  },
  {
    "id": "307",
    "name": "Temple",
    "indexId": "243",
    "borders": "{2752,9152,2815,9215}"
  },
  {
    "id": "311",
    "name": "Showdown",
    "indexId": "245",
    "borders": "{2688,9152,2751,9215}"
  },
  {
    "id": "312",
    "name": "Find My Way",
    "indexId": "246",
    "borders": "{2688,9088,2751,9151}"
  },
  {
    "id": "314",
    "name": "Castle Wars",
    "indexId": "247",
    "borders": "{2368,3072,2431,3135}"
  },
  {
    "id": "316",
    "name": "The Navigator",
    "indexId": "255",
    "borders": "{2624,9984,2687,10047}"
  },
  {
    "id": "317",
    "name": "Melodrama",
    "indexId": "248",
    "borders": "{2432,3072,2495,3135}"
  },
  {
    "id": "318",
    "name": "Ready for Battle",
    "indexId": "249",
    "borders": "{2368,9472,2431,9535}"
  },
  {
    "id": "319",
    "name": "Stillness",
    "indexId": "250",
    "borders": "{3456,9792,3519,9855}"
  },
  {
    "id": "320",
    "name": "Lighthouse",
    "indexId": "251",
    "borders": "{2496,3584,2559,3647}"
  },
  {
    "id": "322",
    "name": "Out of the Deep",
    "indexId": "253",
    "borders": "{2496,9984,2559,10047}"
  },
  {
    "id": "323",
    "name": "Underground Pass",
    "indexId": "134",
    "borders": "{2368,9536,2431,9599}"
  },
  {
    "id": "324",
    "name": "Background",
    "indexId": "18",
    "borders": "{2752,3328,2815,3391}-{1920,4992,1983,5055}"
  },
  {
    "id": "325",
    "name": "Cave Background",
    "indexId": "25",
    "borders": "{3008,9728,3071,9791}-{2944,9792,3007,9855}"
  },
  {
    "id": "326",
    "name": "Dark",
    "indexId": "31",
    "borders": "{3328,3648,3391,3711}"
  },
  {
    "id": "327",
    "name": "Dream",
    "indexId": "35",
    "borders": "{3136,3200,3199,3263}"
  },
  {
    "id": "328",
    "name": "March",
    "indexId": "81",
    "borders": "{2496,3328,2559,3391}"
  },
  {
    "id": "329",
    "name": "Regal",
    "indexId": "95",
    "borders": "{3264,3904,3327,3967}"
  },
  {
    "id": "330",
    "name": "Cellar Song",
    "indexId": "173",
    "borders": "{3136,9792,3199,9855}"
  },
  {
    "id": "331",
    "name": "Scape Sad",
    "indexId": "104",
    "borders": "{3264,3840,3327,3903}"
  },
  {
    "id": "332",
    "name": "Scape Wild",
    "indexId": "105",
    "borders": "{3200,3648,3263,3711}-{3136,3840,3199,3903}"
  },
  {
    "id": "333",
    "name": "Spooky",
    "indexId": "114",
    "borders": "{3072,3328,3135,3391}"
  },
  {
    "id": "334",
    "name": "Pirates of Peril",
    "indexId": "262",
    "borders": "{3008,3904,3071,3967}"
  },
  {
    "id": "335",
    "name": "Romancing the Crone",
    "indexId": "264",
    "borders": "{2752,3840,2815,3903}"
  },
  {
    "id": "336",
    "name": "Dangerous Road",
    "indexId": "263",
    "borders": "{2816,9536,2879,9599}"
  },
  {
    "id": "337",
    "name": "Faithless",
    "indexId": "265",
    "borders": "{3200,3584,3263,3647}"
  },
  {
    "id": "338",
    "name": "Tiptoe",
    "indexId": "266",
    "borders": "{3072,9728,3135,9791}"
  },
  {
    "id": "339",
    "name": "The Terrible Tower",
    "indexId": "267",
    "borders": "{3392,3520,3455,3583}"
  },
  {
    "id": "340",
    "name": "Masquerade",
    "indexId": "268",
    "borders": "{2688,9984,2751,10047}"
  },
  {
    "id": "341",
    "name": "The Slayer",
    "indexId": "269",
    "borders": "{2752,9984,2815,10047}"
  },
  {
    "id": "342",
    "name": "Body Parts",
    "indexId": "270",
    "borders": "{3456,9920,3519,9983}"
  },
  {
    "id": "343",
    "name": "Monster Melee",
    "indexId": "272",
    "borders": "{3136,9600,3199,9663}"
  },
  {
    "id": "344",
    "name": "Fenkenstrain's Refrain",
    "indexId": "271",
    "borders": "{3456,3520,3519,3583}"
  },
  {
    "id": "345",
    "name": "Barking Mad",
    "indexId": "274",
    "borders": "{3520,9856,3583,9919}"
  },
  {
    "id": "346",
    "name": "Goblin Game",
    "indexId": "252",
    "borders": "{2560,9792,2623,9855}"
  },
  {
    "id": "347",
    "name": "Fruits de Mer",
    "indexId": "273",
    "borders": "{2752,3264,2815,3327}"
  },
  {
    "id": "348",
    "name": "Narnode's Theme",
    "indexId": "513",
    "borders": "{2432,9856,2495,9919}"
  },
  {
    "id": "351",
    "name": "Dynasty",
    "indexId": "275",
    "borders": "{3328,2944,3391,3007}"
  },
  {
    "id": "352",
    "name": "Scarab",
    "indexId": "282",
    "borders": "{3136,2880,3199,2943}"
  },
  {
    "id": "353",
    "name": "Shipwrecked",
    "indexId": "276",
    "borders": "{3584,3520,3647,3583}"
  },
  {
    "id": "354",
    "name": "Phasmatys",
    "indexId": "277",
    "borders": "{3648,9856,3711,9919}"
  },
  {
    "id": "355",
    "name": "The Other Side",
    "indexId": "278",
    "borders": "{3648,3456,3711,3519}"
  },
  {
    "id": "356",
    "name": "Settlement",
    "indexId": "279",
    "borders": "{2752,3648,2815,3711}"
  },
  {
    "id": "357",
    "name": "Cave of Beasts",
    "indexId": "280",
    "borders": "{2752,10048,2815,10111}"
  },
  {
    "id": "358",
    "name": "Dragontooth Island",
    "indexId": "281",
    "borders": "{3776,3520,3839,3583}"
  },
  {
    "id": "359",
    "name": "Sarcophagus",
    "indexId": "283",
    "borders": "{3200,9280,3263,9343}"
  },
  {
    "id": "361",
    "name": "Down Below",
    "indexId": "284",
    "borders": "{3072,9600,3135,9663}"
  },
  {
    "id": "362",
    "name": "Karamja Jam",
    "indexId": "286",
    "borders": "{2688,9472,2751,9535}-{2688,9408,2751,9471}"
  },
  {
    "id": "363",
    "name": "7th Realm",
    "indexId": "285",
    "borders": "{2624,9536,2687,9599}-{2624,9472,2687,9535}"
  },
  {
    "id": "364",
    "name": "Pathways",
    "indexId": "287",
    "borders": "{2688,9536,2751,9599}"
  },
  {
    "id": "369",
    "name": "Time to Mine",
    "indexId": "289",
    "borders": "{2816,10112,2879,10175}"
  },
  {
    "id": "370",
    "name": "In Between",
    "indexId": "290",
    "borders": "{2496,4928,2559,4991}"
  },
  {
    "id": "372",
    "name": "Far Away",
    "indexId": "292",
    "borders": "{2304,3136,2367,3199}"
  },
  {
    "id": "373",
    "name": "Claustrophobia",
    "indexId": "291",
    "borders": "{2304,4928,2367,4991}"
  },
  {
    "id": "375",
    "name": "Fight or Flight",
    "indexId": "293",
    "borders": "{1920,4608,1983,4671}"
  },
  {
    "id": "376",
    "name": "Temple of Light",
    "indexId": "294",
    "borders": "{1856,4608,1919,4671}"
  },
  {
    "id": "377",
    "name": "The Golem",
    "indexId": "295",
    "borders": "{3392,3072,3455,3135}-{3456,3072,3519,3135}"
  },
  {
    "id": "380",
    "name": "Dance of the Undead",
    "indexId": "298",
    "borders": "{3520,3264,3583,3327}"
  },
  {
    "id": "381",
    "name": "Dangerous Way",
    "indexId": "299",
    "borders": "{3520,9664,3583,9727}"
  },
  {
    "id": "383",
    "name": "City of the Dead",
    "indexId": "300",
    "borders": "{3200,2752,3263,2815}-{3264,2752,3327,2815}"
  },
  {
    "id": "386",
    "name": "Bandos Battalion",
    "indexId": "492",
    "borders": "{2820,5312,2849,5369}-{2849,5349,2880,5374}"
  },
  {
    "id": "387",
    "name": "Sphinx",
    "indexId": "302",
    "borders": "{3264,2816,3327,2879}"
  },
  {
    "id": "388",
    "name": "Mirage",
    "indexId": "303",
    "borders": "{3264,9152,3327,9215}"
  },
  {
    "id": "389",
    "name": "Cave of the Goblins",
    "indexId": "304",
    "borders": "{3136,9536,3199,9599}"
  },
  {
    "id": "390",
    "name": "Romper Chomper",
    "indexId": "312",
    "borders": "{2304,3008,2367,3071}"
  },
  {
    "id": "391",
    "name": "Zamorak Zoo",
    "indexId": "490",
    "borders": "{2879,5340,2944,5366}-{2909,5316,2944,5340}"
  },
  {
    "id": "392",
    "name": "Zogre Dance",
    "indexId": "306",
    "borders": "{2432,3008,2495,3071}"
  },
  {
    "id": "393",
    "name": "Path of Peril",
    "indexId": "307",
    "borders": "{2624,5056,2687,5119}"
  },
  {
    "id": "394",
    "name": "Wayward",
    "indexId": "308",
    "borders": "{2432,9408,2495,9471}"
  },
  {
    "id": "395",
    "name": "Tale of Keldagrim",
    "indexId": "309",
    "borders": "{2880,10112,2943,10175}"
  },
  {
    "id": "396",
    "name": "Land of the Dwarves",
    "indexId": "310",
    "borders": "{2816,10176,2879,10239}"
  },
  {
    "id": "397",
    "name": "Tears of Guthix",
    "indexId": "311",
    "borders": "{3200,9472,3263,9535}"
  },
  {
    "id": "399",
    "name": "Armageddon",
    "indexId": "494",
    "borders": "{2816,5248,2943,5375,[2823,5250,2844,5310]~,[2844,5250,2878,5280]~,[2879,5340,2944,5366]~,[2909,5316,2944,5340]~,[2820,5312,2849,5369]~,[2849,5349,2880,5374]~,[2885,5253,2934,5278]~,[2913,5278,2937,5306]}"
  },
  {
    "id": "401",
    "name": "The Adventurer",
    "indexId": "520",
    "borders": ""
  },
  {
    "id": "402",
    "name": "The Rogues' Den",
    "indexId": "313",
    "borders": "{2944,4928,3007,4991}-{3008,4928,3071,4991}"
  },
  {
    "id": "403",
    "name": "The Far Side",
    "indexId": "314",
    "borders": "{3008,5056,3071,5119}"
  },
  {
    "id": "404",
    "name": "Armadyl Alliance",
    "indexId": "493",
    "borders": "{2823,5250,2844,5310}-{2844,5250,2878,5280}"
  },
  {
    "id": "407",
    "name": "The Lost Melody",
    "indexId": "315",
    "borders": "{3264,9600,3327,9663}"
  },
  {
    "id": "408",
    "name": "Strength of Saradomin",
    "indexId": "491",
    "borders": "{2885,5253,2934,5278}-{2913,5278,2937,5306}"
  },
  {
    "id": "409",
    "name": "Frogland",
    "indexId": "336",
    "borders": "{2432,4736,2495,4799}"
  },
  {
    "id": "411",
    "name": "Evil Bob's Island",
    "indexId": "316",
    "borders": "{2496,4736,2559,4799}"
  },
  {
    "id": "412",
    "name": "Into the Abyss",
    "indexId": "317",
    "borders": "{3008,4800,3071,4863}"
  },
  {
    "id": "413",
    "name": "The Quiz Master",
    "indexId": "318",
    "borders": "{1920,4736,1983,4799}"
  },
  {
    "id": "418",
    "name": "Corporal Punishment",
    "indexId": "323",
    "borders": "{3136,4800,3199,4863}"
  },
  {
    "id": "419",
    "name": "Pheasant Peasant",
    "indexId": "321",
    "borders": "{2560,4736,2623,4799}"
  },
  {
    "id": "425",
    "name": "The Chosen",
    "indexId": "324",
    "borders": "{2432,4928,2495,4991}"
  },
  {
    "id": "428",
    "name": "Altar Ego",
    "indexId": "501",
    "borders": "{3264,4800,3327,4863}"
  },
  {
    "id": "432",
    "name": "Grimly Fiendish",
    "indexId": "509",
    "borders": "{1600,4800,1663,4863}-{1664,4800,1727,4863}"
  },
  {
    "id": "434",
    "name": "Have a Blast",
    "indexId": "325",
    "borders": "{1920,4928,1983,4991}"
  },
  {
    "id": "435",
    "name": "Wilderness",
    "indexId": "142",
    "borders": "{2944,3584,3007,3647}-{3072,3712,3135,3775}"
  },
  {
    "id": "442",
    "name": "Clan Wars",
    "indexId": "515",
    "borders": ""
  },
  {
    "id": "443",
    "name": "Bounty Hunter Level 2",
    "indexId": "518",
    "borders": "{2944,5632,3135,5823}"
  },
  {
    "id": "444",
    "name": "Bounty Hunter Level 1",
    "indexId": "517",
    "borders": "{2688,5632,2879,5823}"
  },
  {
    "id": "445",
    "name": "Bounty Hunter Level 3",
    "indexId": "519",
    "borders": "{3200,5632,3391,5823}"
  },
  {
    "id": "447",
    "name": "Over To Nardah",
    "indexId": "328",
    "borders": "{3392,2880,3455,2943}"
  },
  {
    "id": "448",
    "name": "The Monsters Below",
    "indexId": "329",
    "borders": "{2432,10112,2495,10175}"
  },
  {
    "id": "456",
    "name": "Animal Apogee",
    "indexId": "504",
    "borders": ""
  },
  {
    "id": "461",
    "name": "The Desolate Isle",
    "indexId": "330",
    "borders": "{2496,3712,2559,3775}"
  },
  {
    "id": "462",
    "name": "Spirits of Elid",
    "indexId": "331",
    "borders": "{3328,9536,3391,9599}"
  },
  {
    "id": "463",
    "name": "Fire and Brimstone",
    "indexId": "334",
    "borders": "{2368,5120,2431,5183}"
  },
  {
    "id": "464",
    "name": "The Genie",
    "indexId": "332",
    "borders": "{3328,9280,3391,9343}"
  },
  {
    "id": "465",
    "name": "Desert Heat",
    "indexId": "333",
    "borders": "{3392,2944,3455,3007}"
  },
  {
    "id": "469",
    "name": "In the Pits",
    "indexId": "335",
    "borders": "{2432,5120,2495,5183}"
  },
  {
    "id": "471",
    "name": "Brew Hoo Hoo",
    "indexId": "338",
    "borders": "{3648,9920,3711,9983}"
  },
  {
    "id": "473",
    "name": "TzHaar!",
    "indexId": "339",
    "borders": "{2368,5056,2431,5119}"
  },
  {
    "id": "475",
    "name": "Wild Side",
    "indexId": "340",
    "borders": "{3008,3840,3071,3903}"
  },
  {
    "id": "476",
    "name": "Dead Can Dance",
    "indexId": "341",
    "borders": "{3136,3648,3199,3711}"
  },
  {
    "id": "478",
    "name": "The Cellar Dwellers",
    "indexId": "342",
    "borders": "{2496,9664,2559,9727}"
  },
  {
    "id": "479",
    "name": "Jungle Troubles",
    "indexId": "343",
    "borders": "{2880,3072,2943,3135}"
  },
  {
    "id": "481",
    "name": "Catch Me If You Can",
    "indexId": "344",
    "borders": "{2624,9600,2687,9663}"
  },
  {
    "id": "482",
    "name": "Rat a Tat Tat",
    "indexId": "345",
    "borders": "{2880,5056,2943,5119}"
  },
  {
    "id": "489",
    "name": "Bubble and Squeak",
    "indexId": "347",
    "borders": "{1920,4672,1983,4735}"
  },
  {
    "id": "490",
    "name": "Sarim's Vermin",
    "indexId": "348",
    "borders": "{2944,9600,3007,9663}"
  },
  {
    "id": "491",
    "name": "Rat Hunt",
    "indexId": "349",
    "borders": "{2816,5056,2879,5119}"
  },
  {
    "id": "496",
    "name": "The Trade Parade",
    "indexId": "555",
    "borders": "{3136,3456,3199,3519}"
  },
  {
    "id": "497",
    "name": "Aye Car Rum Ba",
    "indexId": "351",
    "borders": "{2112,5056,2175,5119}"
  },
  {
    "id": "498",
    "name": "Blistering Barnacles",
    "indexId": "352",
    "borders": "{2112,5120,2175,5183}"
  },
  {
    "id": "500",
    "name": "A New Menace",
    "indexId": "522",
    "borders": ""
  },
  {
    "id": "501",
    "name": "Distant Land",
    "indexId": "353",
    "borders": "{3456,3136,3519,3199}"
  },
  {
    "id": "505",
    "name": "Pharaoh's Tomb",
    "indexId": "355",
    "borders": "{3328,2816,3391,2879}-{3008,4672,3071,4735}"
  },
  {
    "id": "511",
    "name": "In the Clink",
    "indexId": "360",
    "borders": "{2048,4416,2111,4479}"
  },
  {
    "id": "515",
    "name": "Mudskipper Melody",
    "indexId": "361",
    "borders": "{2944,3072,3007,3135}"
  },
  {
    "id": "517",
    "name": "Subterranea",
    "indexId": "362",
    "borders": "{2496,10112,2559,10175}"
  },
  {
    "id": "526",
    "name": "Arma Gonna Get You",
    "indexId": "592",
    "borders": ""
  },
  {
    "id": "524",
    "name": "Xenophobe",
    "indexId": "366",
    "borders": "{1856,4352,1919,4415}-{2880,4416,2943,4479}"
  },
  {
    "id": "528",
    "name": "Victory is Mine",
    "indexId": "368",
    "borders": "{3136,9728,3199,9791}"
  },
  {
    "id": "529",
    "name": "Woe of the Wyvern",
    "indexId": "369",
    "borders": "{3008,9536,3071,9599}"
  },
  {
    "id": "530",
    "name": "In the Brine",
    "indexId": "370",
    "borders": "{3648,2944,3711,3007}"
  },
  {
    "id": "532",
    "name": "Diango's Little Helpers",
    "indexId": "371",
    "borders": "{1984,4416,2047,4479}"
  },
  {
    "id": "542",
    "name": "Lament",
    "indexId": "381",
    "borders": "{3072,9280,3135,9343}"
  },
  {
    "id": "544",
    "name": "Making Waves",
    "indexId": "378",
    "borders": "{2304,3648,2367,3711}-{2304,3584,2367,3647}"
  },
  {
    "id": "555",
    "name": "Ardougne Ago",
    "indexId": "613",
    "borders": ""
  },
  {
    "id": "569",
    "name": "Undead Army",
    "indexId": "607",
    "borders": "{3200,9984,3263,10047}"
  },
  {
    "id": "571",
    "name": "Art of Hocus-Pocus",
    "indexId": "624",
    "borders": ""
  },
  {
    "id": "573",
    "name": "The Mad Mole",
    "indexId": "393",
    "borders": "{1728,5120,1791,5183}"
  },
  {
    "id": "575",
    "name": "Chickened Out",
    "indexId": "395",
    "borders": "{2432,4352,2495,4415}"
  },
  {
    "id": "576",
    "name": "Davy Jones's Locker",
    "indexId": "394",
    "borders": "{2944,9472,3007,9535}"
  },
  {
    "id": "583",
    "name": "Chef Surprize",
    "indexId": "399",
    "borders": "{1856,5312,1919,5375}"
  },
  {
    "id": "586",
    "name": "Everlasting Fire",
    "indexId": "417",
    "borders": "{3328,3904,3391,3967}"
  },
  {
    "id": "587",
    "name": "Null and Void",
    "indexId": "400",
    "borders": "{2624,2624,2687,2687}"
  },
  {
    "id": "588",
    "name": "Pest Control",
    "indexId": "401",
    "borders": "{2624,2560,2687,2623}"
  },
  {
    "id": "594",
    "name": "No Way Out",
    "indexId": "403",
    "borders": "{3264,9792,3327,9855}-{3072,5184,3135,5247}-{3008,5184,3071,5247}"
  },
  {
    "id": "603",
    "name": "Funny Bunnies",
    "indexId": "406",
    "borders": "{2432,5248,2495,5311}"
  },
  {
    "id": "604",
    "name": "Assault and Battery",
    "indexId": "407",
    "borders": ""
  },
  {
    "id": "612",
    "name": "Head to Head",
    "indexId": "411",
    "borders": "{1856,5120,1919,5183}"
  },
  {
    "id": "616",
    "name": "Back to Life",
    "indexId": "414",
    "borders": ""
  },
  {
    "id": "634",
    "name": "Warriors' Guild",
    "indexId": "423",
    "borders": ""
  },
  {
    "id": "964",
    "name": "Too Many Cooks...",
    "indexId": "398",
    "borders": "{2944,9856,3007,9919}"
  },
  {
    "id": "222",
    "name": "Major Miner",
    "indexId": "437",
    "borders": "{2403,10186,2409,10192}"
  },
  {
    "id": "223",
    "name": "Norse Code",
    "indexId": "439",
    "borders": "{2404,3797,2421,3820}"
  },
  {
    "id": "225",
    "name": "Volcanic Vikings",
    "indexId": "440",
    "borders": "{2304,3785,2635,3818}"
  },
  {
    "id": "584",
    "name": "Temple Desecrated",
    "indexId": "628",
    "borders": "{2580,5763,2620,5700}"
  },
  {
    "id": "589",
    "name": "The Sound of Guthix",
    "indexId": "626",
    "borders": "{2500,5766,2620,5810}"
  },
  {
    "id": "487",
    "name": "Charmin' Farmin'",
    "indexId": "516",
    "borders": "{1600,4672,1663,4735}"
  },
  {
    "id": "578",
    "name": "Stealing Creation",
    "indexId": "620",
    "borders": ""
  }
]
